^C:\USERS\LUCAS\DOWNLOADS\OF_V0.9.8_VS_RELEASE\APPS\TANKGAME\TANKGAME\SRC\SOLARSYSTEM.CPP
/c /IC:\USERS\LUCAS\DOWNLOADS\OF_V0.9.8_VS_RELEASE\APPS\TANKGAME\TANKGAME\SRC\MATH /IC:\USERS\LUCAS\DOWNLOADS\OF_V0.9.8_VS_RELEASE\LIBS\OPENFRAMEWORKSCOMPILED\PROJECT\VS\\..\..\..\..\\LIBS\OPENFRAMEWORKS /IC:\USERS\LUCAS\DOWNLOADS\OF_V0.9.8_VS_RELEASE\LIBS\OPENFRAMEWORKSCOMPILED\PROJECT\VS\\..\..\..\..\\LIBS\OPENFRAMEWORKS\GRAPHICS /IC:\USERS\LUCAS\DOWNLOADS\OF_V0.9.8_VS_RELEASE\LIBS\OPENFRAMEWORKSCOMPILED\PROJECT\VS\\..\..\..\..\\LIBS\OPENFRAMEWORKS\APP /IC:\USERS\LUCAS\DOWNLOADS\OF_V0.9.8_VS_RELEASE\LIBS\OPENFRAMEWORKSCOMPILED\PROJECT\VS\\..\..\..\..\\LIBS\OPENFRAMEWORKS\SOUND /IC:\USERS\LUCAS\DOWNLOADS\OF_V0.9.8_VS_RELEASE\LIBS\OPENFRAMEWORKSCOMPILED\PROJECT\VS\\..\..\..\..\\LIBS\OPENFRAMEWORKS\UTILS /IC:\USERS\LUCAS\DOWNLOADS\OF_V0.9.8_VS_RELEASE\LIBS\OPENFRAMEWORKSCOMPILED\PROJECT\VS\\..\..\..\..\\LIBS\OPENFRAMEWORKS\COMMUNICATION /IC:\USERS\LUCAS\DOWNLOADS\OF_V0.9.8_VS_RELEASE\LIBS\OPENFRAMEWORKSCOMPILED\PROJECT\VS\\..\..\..\..\\LIBS\OPENFRAMEWORKS\VIDEO /IC:\USERS\LUCAS\DOWNLOADS\OF_V0.9.8_VS_RELEASE\LIBS\OPENFRAMEWORKSCOMPILED\PROJECT\VS\\..\..\..\..\\LIBS\OPENFRAMEWORKS\TYPES /IC:\USERS\LUCAS\DOWNLOADS\OF_V0.9.8_VS_RELEASE\LIBS\OPENFRAMEWORKSCOMPILED\PROJECT\VS\\..\..\..\..\\LIBS\OPENFRAMEWORKS\MATH /IC:\USERS\LUCAS\DOWNLOADS\OF_V0.9.8_VS_RELEASE\LIBS\OPENFRAMEWORKSCOMPILED\PROJECT\VS\\..\..\..\..\\LIBS\OPENFRAMEWORKS\3D /IC:\USERS\LUCAS\DOWNLOADS\OF_V0.9.8_VS_RELEASE\LIBS\OPENFRAMEWORKSCOMPILED\PROJECT\VS\\..\..\..\..\\LIBS\OPENFRAMEWORKS\GL /IC:\USERS\LUCAS\DOWNLOADS\OF_V0.9.8_VS_RELEASE\LIBS\OPENFRAMEWORKSCOMPILED\PROJECT\VS\\..\..\..\..\\LIBS\OPENFRAMEWORKS\EVENTS /IC:\USERS\LUCAS\DOWNLOADS\OF_V0.9.8_VS_RELEASE\LIBS\OPENFRAMEWORKSCOMPILED\PROJECT\VS\\..\..\..\..\\LIBS\GLUT\INCLUDE /IC:\USERS\LUCAS\DOWNLOADS\OF_V0.9.8_VS_RELEASE\LIBS\OPENFRAMEWORKSCOMPILED\PROJECT\VS\\..\..\..\..\\LIBS\RTAUDIO\INCLUDE /IC:\USERS\LUCAS\DOWNLOADS\OF_V0.9.8_VS_RELEASE\LIBS\OPENFRAMEWORKSCOMPILED\PROJECT\VS\\..\..\..\..\\LIBS\QUICKTIME\INCLUDE /IC:\USERS\LUCAS\DOWNLOADS\OF_V0.9.8_VS_RELEASE\LIBS\OPENFRAMEWORKSCOMPILED\PROJECT\VS\\..\..\..\..\\LIBS\FREETYPE\INCLUDE /IC:\USERS\LUCAS\DOWNLOADS\OF_V0.9.8_VS_RELEASE\LIBS\OPENFRAMEWORKSCOMPILED\PROJECT\VS\\..\..\..\..\\LIBS\FREETYPE\INCLUDE\FREETYPE2 /IC:\USERS\LUCAS\DOWNLOADS\OF_V0.9.8_VS_RELEASE\LIBS\OPENFRAMEWORKSCOMPILED\PROJECT\VS\\..\..\..\..\\LIBS\FREEIMAGE\INCLUDE /IC:\USERS\LUCAS\DOWNLOADS\OF_V0.9.8_VS_RELEASE\LIBS\OPENFRAMEWORKSCOMPILED\PROJECT\VS\\..\..\..\..\\LIBS\FMODEX\INCLUDE /IC:\USERS\LUCAS\DOWNLOADS\OF_V0.9.8_VS_RELEASE\LIBS\OPENFRAMEWORKSCOMPILED\PROJECT\VS\\..\..\..\..\\LIBS\VIDEOINPUT\INCLUDE /IC:\USERS\LUCAS\DOWNLOADS\OF_V0.9.8_VS_RELEASE\LIBS\OPENFRAMEWORKSCOMPILED\PROJECT\VS\\..\..\..\..\\LIBS\GLEW\INCLUDE\ /IC:\USERS\LUCAS\DOWNLOADS\OF_V0.9.8_VS_RELEASE\LIBS\OPENFRAMEWORKSCOMPILED\PROJECT\VS\\..\..\..\..\\LIBS\GLU\INCLUDE /IC:\USERS\LUCAS\DOWNLOADS\OF_V0.9.8_VS_RELEASE\LIBS\OPENFRAMEWORKSCOMPILED\PROJECT\VS\\..\..\..\..\\LIBS\TESS2\INCLUDE /IC:\USERS\LUCAS\DOWNLOADS\OF_V0.9.8_VS_RELEASE\LIBS\OPENFRAMEWORKSCOMPILED\PROJECT\VS\\..\..\..\..\\LIBS\CAIRO\INCLUDE\CAIRO /IC:\USERS\LUCAS\DOWNLOADS\OF_V0.9.8_VS_RELEASE\LIBS\OPENFRAMEWORKSCOMPILED\PROJECT\VS\\..\..\..\..\\LIBS\POCO\INCLUDE /IC:\USERS\LUCAS\DOWNLOADS\OF_V0.9.8_VS_RELEASE\LIBS\OPENFRAMEWORKSCOMPILED\PROJECT\VS\\..\..\..\..\\LIBS\GLFW\INCLUDE /IC:\USERS\LUCAS\DOWNLOADS\OF_V0.9.8_VS_RELEASE\LIBS\OPENFRAMEWORKSCOMPILED\PROJECT\VS\\..\..\..\..\\LIBS\OPENSSL\INCLUDE /IC:\USERS\LUCAS\DOWNLOADS\OF_V0.9.8_VS_RELEASE\LIBS\OPENFRAMEWORKSCOMPILED\PROJECT\VS\\..\..\..\..\\LIBS\UTF8CPP\INCLUDE /IC:\USERS\LUCAS\DOWNLOADS\OF_V0.9.8_VS_RELEASE\LIBS\OPENFRAMEWORKSCOMPILED\PROJECT\VS\\..\..\..\..\\LIBS\BOOST\INCLUDE /IC:\USERS\LUCAS\DOWNLOADS\OF_V0.9.8_VS_RELEASE\LIBS\OPENFRAMEWORKSCOMPILED\PROJECT\VS\\..\..\..\..\\ADDONS /AIC:\USERS\LUCAS\DOWNLOADS\OF_V0.9.8_VS_RELEASE\APPS\TANKGAME\TANKGAME\SRC\MATH /Zi /nologo /W3 /WX- /Od /Oy- /D WIN32 /D _DEBUG /D _CONSOLE /D POCO_STATIC /D CAIRO_WIN32_STATIC_BUILD /D DISABLE_SOME_FLOATING_POINT /D _UNICODE /D UNICODE /Gm- /EHsc /RTC1 /MDd /GS /fp:precise /Zc:wchar_t /Zc:forScope /Zc:inline /Fo"OBJ\DEBUG\\" /Fd"OBJ\DEBUG\VC140.PDB" /Gd /TP /analyze- C:\USERS\LUCAS\DOWNLOADS\OF_V0.9.8_VS_RELEASE\APPS\TANKGAME\TANKGAME\SRC\SOLARSYSTEM.CPP
^C:\USERS\LUCAS\DOWNLOADS\OF_V0.9.8_VS_RELEASE\APPS\TANKGAME\TANKGAME\SRC\MAIN.CPP
/c /IC:\USERS\LUCAS\DOWNLOADS\OF_V0.9.8_VS_RELEASE\APPS\TANKGAME\TANKGAME\SRC\MATH /IC:\USERS\LUCAS\DOWNLOADS\OF_V0.9.8_VS_RELEASE\LIBS\OPENFRAMEWORKSCOMPILED\PROJECT\VS\\..\..\..\..\\LIBS\OPENFRAMEWORKS /IC:\USERS\LUCAS\DOWNLOADS\OF_V0.9.8_VS_RELEASE\LIBS\OPENFRAMEWORKSCOMPILED\PROJECT\VS\\..\..\..\..\\LIBS\OPENFRAMEWORKS\GRAPHICS /IC:\USERS\LUCAS\DOWNLOADS\OF_V0.9.8_VS_RELEASE\LIBS\OPENFRAMEWORKSCOMPILED\PROJECT\VS\\..\..\..\..\\LIBS\OPENFRAMEWORKS\APP /IC:\USERS\LUCAS\DOWNLOADS\OF_V0.9.8_VS_RELEASE\LIBS\OPENFRAMEWORKSCOMPILED\PROJECT\VS\\..\..\..\..\\LIBS\OPENFRAMEWORKS\SOUND /IC:\USERS\LUCAS\DOWNLOADS\OF_V0.9.8_VS_RELEASE\LIBS\OPENFRAMEWORKSCOMPILED\PROJECT\VS\\..\..\..\..\\LIBS\OPENFRAMEWORKS\UTILS /IC:\USERS\LUCAS\DOWNLOADS\OF_V0.9.8_VS_RELEASE\LIBS\OPENFRAMEWORKSCOMPILED\PROJECT\VS\\..\..\..\..\\LIBS\OPENFRAMEWORKS\COMMUNICATION /IC:\USERS\LUCAS\DOWNLOADS\OF_V0.9.8_VS_RELEASE\LIBS\OPENFRAMEWORKSCOMPILED\PROJECT\VS\\..\..\..\..\\LIBS\OPENFRAMEWORKS\VIDEO /IC:\USERS\LUCAS\DOWNLOADS\OF_V0.9.8_VS_RELEASE\LIBS\OPENFRAMEWORKSCOMPILED\PROJECT\VS\\..\..\..\..\\LIBS\OPENFRAMEWORKS\TYPES /IC:\USERS\LUCAS\DOWNLOADS\OF_V0.9.8_VS_RELEASE\LIBS\OPENFRAMEWORKSCOMPILED\PROJECT\VS\\..\..\..\..\\LIBS\OPENFRAMEWORKS\MATH /IC:\USERS\LUCAS\DOWNLOADS\OF_V0.9.8_VS_RELEASE\LIBS\OPENFRAMEWORKSCOMPILED\PROJECT\VS\\..\..\..\..\\LIBS\OPENFRAMEWORKS\3D /IC:\USERS\LUCAS\DOWNLOADS\OF_V0.9.8_VS_RELEASE\LIBS\OPENFRAMEWORKSCOMPILED\PROJECT\VS\\..\..\..\..\\LIBS\OPENFRAMEWORKS\GL /IC:\USERS\LUCAS\DOWNLOADS\OF_V0.9.8_VS_RELEASE\LIBS\OPENFRAMEWORKSCOMPILED\PROJECT\VS\\..\..\..\..\\LIBS\OPENFRAMEWORKS\EVENTS /IC:\USERS\LUCAS\DOWNLOADS\OF_V0.9.8_VS_RELEASE\LIBS\OPENFRAMEWORKSCOMPILED\PROJECT\VS\\..\..\..\..\\LIBS\GLUT\INCLUDE /IC:\USERS\LUCAS\DOWNLOADS\OF_V0.9.8_VS_RELEASE\LIBS\OPENFRAMEWORKSCOMPILED\PROJECT\VS\\..\..\..\..\\LIBS\RTAUDIO\INCLUDE /IC:\USERS\LUCAS\DOWNLOADS\OF_V0.9.8_VS_RELEASE\LIBS\OPENFRAMEWORKSCOMPILED\PROJECT\VS\\..\..\..\..\\LIBS\QUICKTIME\INCLUDE /IC:\USERS\LUCAS\DOWNLOADS\OF_V0.9.8_VS_RELEASE\LIBS\OPENFRAMEWORKSCOMPILED\PROJECT\VS\\..\..\..\..\\LIBS\FREETYPE\INCLUDE /IC:\USERS\LUCAS\DOWNLOADS\OF_V0.9.8_VS_RELEASE\LIBS\OPENFRAMEWORKSCOMPILED\PROJECT\VS\\..\..\..\..\\LIBS\FREETYPE\INCLUDE\FREETYPE2 /IC:\USERS\LUCAS\DOWNLOADS\OF_V0.9.8_VS_RELEASE\LIBS\OPENFRAMEWORKSCOMPILED\PROJECT\VS\\..\..\..\..\\LIBS\FREEIMAGE\INCLUDE /IC:\USERS\LUCAS\DOWNLOADS\OF_V0.9.8_VS_RELEASE\LIBS\OPENFRAMEWORKSCOMPILED\PROJECT\VS\\..\..\..\..\\LIBS\FMODEX\INCLUDE /IC:\USERS\LUCAS\DOWNLOADS\OF_V0.9.8_VS_RELEASE\LIBS\OPENFRAMEWORKSCOMPILED\PROJECT\VS\\..\..\..\..\\LIBS\VIDEOINPUT\INCLUDE /IC:\USERS\LUCAS\DOWNLOADS\OF_V0.9.8_VS_RELEASE\LIBS\OPENFRAMEWORKSCOMPILED\PROJECT\VS\\..\..\..\..\\LIBS\GLEW\INCLUDE\ /IC:\USERS\LUCAS\DOWNLOADS\OF_V0.9.8_VS_RELEASE\LIBS\OPENFRAMEWORKSCOMPILED\PROJECT\VS\\..\..\..\..\\LIBS\GLU\INCLUDE /IC:\USERS\LUCAS\DOWNLOADS\OF_V0.9.8_VS_RELEASE\LIBS\OPENFRAMEWORKSCOMPILED\PROJECT\VS\\..\..\..\..\\LIBS\TESS2\INCLUDE /IC:\USERS\LUCAS\DOWNLOADS\OF_V0.9.8_VS_RELEASE\LIBS\OPENFRAMEWORKSCOMPILED\PROJECT\VS\\..\..\..\..\\LIBS\CAIRO\INCLUDE\CAIRO /IC:\USERS\LUCAS\DOWNLOADS\OF_V0.9.8_VS_RELEASE\LIBS\OPENFRAMEWORKSCOMPILED\PROJECT\VS\\..\..\..\..\\LIBS\POCO\INCLUDE /IC:\USERS\LUCAS\DOWNLOADS\OF_V0.9.8_VS_RELEASE\LIBS\OPENFRAMEWORKSCOMPILED\PROJECT\VS\\..\..\..\..\\LIBS\GLFW\INCLUDE /IC:\USERS\LUCAS\DOWNLOADS\OF_V0.9.8_VS_RELEASE\LIBS\OPENFRAMEWORKSCOMPILED\PROJECT\VS\\..\..\..\..\\LIBS\OPENSSL\INCLUDE /IC:\USERS\LUCAS\DOWNLOADS\OF_V0.9.8_VS_RELEASE\LIBS\OPENFRAMEWORKSCOMPILED\PROJECT\VS\\..\..\..\..\\LIBS\UTF8CPP\INCLUDE /IC:\USERS\LUCAS\DOWNLOADS\OF_V0.9.8_VS_RELEASE\LIBS\OPENFRAMEWORKSCOMPILED\PROJECT\VS\\..\..\..\..\\LIBS\BOOST\INCLUDE /IC:\USERS\LUCAS\DOWNLOADS\OF_V0.9.8_VS_RELEASE\LIBS\OPENFRAMEWORKSCOMPILED\PROJECT\VS\\..\..\..\..\\ADDONS /AIC:\USERS\LUCAS\DOWNLOADS\OF_V0.9.8_VS_RELEASE\APPS\TANKGAME\TANKGAME\SRC\MATH /Zi /nologo /W3 /WX- /Od /Oy- /D WIN32 /D _DEBUG /D _CONSOLE /D POCO_STATIC /D CAIRO_WIN32_STATIC_BUILD /D DISABLE_SOME_FLOATING_POINT /D _UNICODE /D UNICODE /Gm- /EHsc /RTC1 /MDd /GS /fp:precise /Zc:wchar_t /Zc:forScope /Zc:inline /Fo"OBJ\DEBUG\\" /Fd"OBJ\DEBUG\VC140.PDB" /Gd /TP /analyze- C:\USERS\LUCAS\DOWNLOADS\OF_V0.9.8_VS_RELEASE\APPS\TANKGAME\TANKGAME\SRC\MAIN.CPP
^C:\USERS\LUCAS\DOWNLOADS\OF_V0.9.8_VS_RELEASE\APPS\TANKGAME\TANKGAME\SRC\GAMEOBJECT.CPP
/c /IC:\USERS\LUCAS\DOWNLOADS\OF_V0.9.8_VS_RELEASE\APPS\TANKGAME\TANKGAME\SRC\MATH /IC:\USERS\LUCAS\DOWNLOADS\OF_V0.9.8_VS_RELEASE\LIBS\OPENFRAMEWORKSCOMPILED\PROJECT\VS\\..\..\..\..\\LIBS\OPENFRAMEWORKS /IC:\USERS\LUCAS\DOWNLOADS\OF_V0.9.8_VS_RELEASE\LIBS\OPENFRAMEWORKSCOMPILED\PROJECT\VS\\..\..\..\..\\LIBS\OPENFRAMEWORKS\GRAPHICS /IC:\USERS\LUCAS\DOWNLOADS\OF_V0.9.8_VS_RELEASE\LIBS\OPENFRAMEWORKSCOMPILED\PROJECT\VS\\..\..\..\..\\LIBS\OPENFRAMEWORKS\APP /IC:\USERS\LUCAS\DOWNLOADS\OF_V0.9.8_VS_RELEASE\LIBS\OPENFRAMEWORKSCOMPILED\PROJECT\VS\\..\..\..\..\\LIBS\OPENFRAMEWORKS\SOUND /IC:\USERS\LUCAS\DOWNLOADS\OF_V0.9.8_VS_RELEASE\LIBS\OPENFRAMEWORKSCOMPILED\PROJECT\VS\\..\..\..\..\\LIBS\OPENFRAMEWORKS\UTILS /IC:\USERS\LUCAS\DOWNLOADS\OF_V0.9.8_VS_RELEASE\LIBS\OPENFRAMEWORKSCOMPILED\PROJECT\VS\\..\..\..\..\\LIBS\OPENFRAMEWORKS\COMMUNICATION /IC:\USERS\LUCAS\DOWNLOADS\OF_V0.9.8_VS_RELEASE\LIBS\OPENFRAMEWORKSCOMPILED\PROJECT\VS\\..\..\..\..\\LIBS\OPENFRAMEWORKS\VIDEO /IC:\USERS\LUCAS\DOWNLOADS\OF_V0.9.8_VS_RELEASE\LIBS\OPENFRAMEWORKSCOMPILED\PROJECT\VS\\..\..\..\..\\LIBS\OPENFRAMEWORKS\TYPES /IC:\USERS\LUCAS\DOWNLOADS\OF_V0.9.8_VS_RELEASE\LIBS\OPENFRAMEWORKSCOMPILED\PROJECT\VS\\..\..\..\..\\LIBS\OPENFRAMEWORKS\MATH /IC:\USERS\LUCAS\DOWNLOADS\OF_V0.9.8_VS_RELEASE\LIBS\OPENFRAMEWORKSCOMPILED\PROJECT\VS\\..\..\..\..\\LIBS\OPENFRAMEWORKS\3D /IC:\USERS\LUCAS\DOWNLOADS\OF_V0.9.8_VS_RELEASE\LIBS\OPENFRAMEWORKSCOMPILED\PROJECT\VS\\..\..\..\..\\LIBS\OPENFRAMEWORKS\GL /IC:\USERS\LUCAS\DOWNLOADS\OF_V0.9.8_VS_RELEASE\LIBS\OPENFRAMEWORKSCOMPILED\PROJECT\VS\\..\..\..\..\\LIBS\OPENFRAMEWORKS\EVENTS /IC:\USERS\LUCAS\DOWNLOADS\OF_V0.9.8_VS_RELEASE\LIBS\OPENFRAMEWORKSCOMPILED\PROJECT\VS\\..\..\..\..\\LIBS\GLUT\INCLUDE /IC:\USERS\LUCAS\DOWNLOADS\OF_V0.9.8_VS_RELEASE\LIBS\OPENFRAMEWORKSCOMPILED\PROJECT\VS\\..\..\..\..\\LIBS\RTAUDIO\INCLUDE /IC:\USERS\LUCAS\DOWNLOADS\OF_V0.9.8_VS_RELEASE\LIBS\OPENFRAMEWORKSCOMPILED\PROJECT\VS\\..\..\..\..\\LIBS\QUICKTIME\INCLUDE /IC:\USERS\LUCAS\DOWNLOADS\OF_V0.9.8_VS_RELEASE\LIBS\OPENFRAMEWORKSCOMPILED\PROJECT\VS\\..\..\..\..\\LIBS\FREETYPE\INCLUDE /IC:\USERS\LUCAS\DOWNLOADS\OF_V0.9.8_VS_RELEASE\LIBS\OPENFRAMEWORKSCOMPILED\PROJECT\VS\\..\..\..\..\\LIBS\FREETYPE\INCLUDE\FREETYPE2 /IC:\USERS\LUCAS\DOWNLOADS\OF_V0.9.8_VS_RELEASE\LIBS\OPENFRAMEWORKSCOMPILED\PROJECT\VS\\..\..\..\..\\LIBS\FREEIMAGE\INCLUDE /IC:\USERS\LUCAS\DOWNLOADS\OF_V0.9.8_VS_RELEASE\LIBS\OPENFRAMEWORKSCOMPILED\PROJECT\VS\\..\..\..\..\\LIBS\FMODEX\INCLUDE /IC:\USERS\LUCAS\DOWNLOADS\OF_V0.9.8_VS_RELEASE\LIBS\OPENFRAMEWORKSCOMPILED\PROJECT\VS\\..\..\..\..\\LIBS\VIDEOINPUT\INCLUDE /IC:\USERS\LUCAS\DOWNLOADS\OF_V0.9.8_VS_RELEASE\LIBS\OPENFRAMEWORKSCOMPILED\PROJECT\VS\\..\..\..\..\\LIBS\GLEW\INCLUDE\ /IC:\USERS\LUCAS\DOWNLOADS\OF_V0.9.8_VS_RELEASE\LIBS\OPENFRAMEWORKSCOMPILED\PROJECT\VS\\..\..\..\..\\LIBS\GLU\INCLUDE /IC:\USERS\LUCAS\DOWNLOADS\OF_V0.9.8_VS_RELEASE\LIBS\OPENFRAMEWORKSCOMPILED\PROJECT\VS\\..\..\..\..\\LIBS\TESS2\INCLUDE /IC:\USERS\LUCAS\DOWNLOADS\OF_V0.9.8_VS_RELEASE\LIBS\OPENFRAMEWORKSCOMPILED\PROJECT\VS\\..\..\..\..\\LIBS\CAIRO\INCLUDE\CAIRO /IC:\USERS\LUCAS\DOWNLOADS\OF_V0.9.8_VS_RELEASE\LIBS\OPENFRAMEWORKSCOMPILED\PROJECT\VS\\..\..\..\..\\LIBS\POCO\INCLUDE /IC:\USERS\LUCAS\DOWNLOADS\OF_V0.9.8_VS_RELEASE\LIBS\OPENFRAMEWORKSCOMPILED\PROJECT\VS\\..\..\..\..\\LIBS\GLFW\INCLUDE /IC:\USERS\LUCAS\DOWNLOADS\OF_V0.9.8_VS_RELEASE\LIBS\OPENFRAMEWORKSCOMPILED\PROJECT\VS\\..\..\..\..\\LIBS\OPENSSL\INCLUDE /IC:\USERS\LUCAS\DOWNLOADS\OF_V0.9.8_VS_RELEASE\LIBS\OPENFRAMEWORKSCOMPILED\PROJECT\VS\\..\..\..\..\\LIBS\UTF8CPP\INCLUDE /IC:\USERS\LUCAS\DOWNLOADS\OF_V0.9.8_VS_RELEASE\LIBS\OPENFRAMEWORKSCOMPILED\PROJECT\VS\\..\..\..\..\\LIBS\BOOST\INCLUDE /IC:\USERS\LUCAS\DOWNLOADS\OF_V0.9.8_VS_RELEASE\LIBS\OPENFRAMEWORKSCOMPILED\PROJECT\VS\\..\..\..\..\\ADDONS /AIC:\USERS\LUCAS\DOWNLOADS\OF_V0.9.8_VS_RELEASE\APPS\TANKGAME\TANKGAME\SRC\MATH /Zi /nologo /W3 /WX- /Od /Oy- /D WIN32 /D _DEBUG /D _CONSOLE /D POCO_STATIC /D CAIRO_WIN32_STATIC_BUILD /D DISABLE_SOME_FLOATING_POINT /D _UNICODE /D UNICODE /Gm- /EHsc /RTC1 /MDd /GS /fp:precise /Zc:wchar_t /Zc:forScope /Zc:inline /Fo"OBJ\DEBUG\\" /Fd"OBJ\DEBUG\VC140.PDB" /Gd /TP /analyze- C:\USERS\LUCAS\DOWNLOADS\OF_V0.9.8_VS_RELEASE\APPS\TANKGAME\TANKGAME\SRC\GAMEOBJECT.CPP
^C:\USERS\LUCAS\DOWNLOADS\OF_V0.9.8_VS_RELEASE\APPS\TANKGAME\TANKGAME\SRC\OFAPP.CPP
/c /IC:\USERS\LUCAS\DOWNLOADS\OF_V0.9.8_VS_RELEASE\APPS\TANKGAME\TANKGAME\SRC\MATH /IC:\USERS\LUCAS\DOWNLOADS\OF_V0.9.8_VS_RELEASE\LIBS\OPENFRAMEWORKSCOMPILED\PROJECT\VS\\..\..\..\..\\LIBS\OPENFRAMEWORKS /IC:\USERS\LUCAS\DOWNLOADS\OF_V0.9.8_VS_RELEASE\LIBS\OPENFRAMEWORKSCOMPILED\PROJECT\VS\\..\..\..\..\\LIBS\OPENFRAMEWORKS\GRAPHICS /IC:\USERS\LUCAS\DOWNLOADS\OF_V0.9.8_VS_RELEASE\LIBS\OPENFRAMEWORKSCOMPILED\PROJECT\VS\\..\..\..\..\\LIBS\OPENFRAMEWORKS\APP /IC:\USERS\LUCAS\DOWNLOADS\OF_V0.9.8_VS_RELEASE\LIBS\OPENFRAMEWORKSCOMPILED\PROJECT\VS\\..\..\..\..\\LIBS\OPENFRAMEWORKS\SOUND /IC:\USERS\LUCAS\DOWNLOADS\OF_V0.9.8_VS_RELEASE\LIBS\OPENFRAMEWORKSCOMPILED\PROJECT\VS\\..\..\..\..\\LIBS\OPENFRAMEWORKS\UTILS /IC:\USERS\LUCAS\DOWNLOADS\OF_V0.9.8_VS_RELEASE\LIBS\OPENFRAMEWORKSCOMPILED\PROJECT\VS\\..\..\..\..\\LIBS\OPENFRAMEWORKS\COMMUNICATION /IC:\USERS\LUCAS\DOWNLOADS\OF_V0.9.8_VS_RELEASE\LIBS\OPENFRAMEWORKSCOMPILED\PROJECT\VS\\..\..\..\..\\LIBS\OPENFRAMEWORKS\VIDEO /IC:\USERS\LUCAS\DOWNLOADS\OF_V0.9.8_VS_RELEASE\LIBS\OPENFRAMEWORKSCOMPILED\PROJECT\VS\\..\..\..\..\\LIBS\OPENFRAMEWORKS\TYPES /IC:\USERS\LUCAS\DOWNLOADS\OF_V0.9.8_VS_RELEASE\LIBS\OPENFRAMEWORKSCOMPILED\PROJECT\VS\\..\..\..\..\\LIBS\OPENFRAMEWORKS\MATH /IC:\USERS\LUCAS\DOWNLOADS\OF_V0.9.8_VS_RELEASE\LIBS\OPENFRAMEWORKSCOMPILED\PROJECT\VS\\..\..\..\..\\LIBS\OPENFRAMEWORKS\3D /IC:\USERS\LUCAS\DOWNLOADS\OF_V0.9.8_VS_RELEASE\LIBS\OPENFRAMEWORKSCOMPILED\PROJECT\VS\\..\..\..\..\\LIBS\OPENFRAMEWORKS\GL /IC:\USERS\LUCAS\DOWNLOADS\OF_V0.9.8_VS_RELEASE\LIBS\OPENFRAMEWORKSCOMPILED\PROJECT\VS\\..\..\..\..\\LIBS\OPENFRAMEWORKS\EVENTS /IC:\USERS\LUCAS\DOWNLOADS\OF_V0.9.8_VS_RELEASE\LIBS\OPENFRAMEWORKSCOMPILED\PROJECT\VS\\..\..\..\..\\LIBS\GLUT\INCLUDE /IC:\USERS\LUCAS\DOWNLOADS\OF_V0.9.8_VS_RELEASE\LIBS\OPENFRAMEWORKSCOMPILED\PROJECT\VS\\..\..\..\..\\LIBS\RTAUDIO\INCLUDE /IC:\USERS\LUCAS\DOWNLOADS\OF_V0.9.8_VS_RELEASE\LIBS\OPENFRAMEWORKSCOMPILED\PROJECT\VS\\..\..\..\..\\LIBS\QUICKTIME\INCLUDE /IC:\USERS\LUCAS\DOWNLOADS\OF_V0.9.8_VS_RELEASE\LIBS\OPENFRAMEWORKSCOMPILED\PROJECT\VS\\..\..\..\..\\LIBS\FREETYPE\INCLUDE /IC:\USERS\LUCAS\DOWNLOADS\OF_V0.9.8_VS_RELEASE\LIBS\OPENFRAMEWORKSCOMPILED\PROJECT\VS\\..\..\..\..\\LIBS\FREETYPE\INCLUDE\FREETYPE2 /IC:\USERS\LUCAS\DOWNLOADS\OF_V0.9.8_VS_RELEASE\LIBS\OPENFRAMEWORKSCOMPILED\PROJECT\VS\\..\..\..\..\\LIBS\FREEIMAGE\INCLUDE /IC:\USERS\LUCAS\DOWNLOADS\OF_V0.9.8_VS_RELEASE\LIBS\OPENFRAMEWORKSCOMPILED\PROJECT\VS\\..\..\..\..\\LIBS\FMODEX\INCLUDE /IC:\USERS\LUCAS\DOWNLOADS\OF_V0.9.8_VS_RELEASE\LIBS\OPENFRAMEWORKSCOMPILED\PROJECT\VS\\..\..\..\..\\LIBS\VIDEOINPUT\INCLUDE /IC:\USERS\LUCAS\DOWNLOADS\OF_V0.9.8_VS_RELEASE\LIBS\OPENFRAMEWORKSCOMPILED\PROJECT\VS\\..\..\..\..\\LIBS\GLEW\INCLUDE\ /IC:\USERS\LUCAS\DOWNLOADS\OF_V0.9.8_VS_RELEASE\LIBS\OPENFRAMEWORKSCOMPILED\PROJECT\VS\\..\..\..\..\\LIBS\GLU\INCLUDE /IC:\USERS\LUCAS\DOWNLOADS\OF_V0.9.8_VS_RELEASE\LIBS\OPENFRAMEWORKSCOMPILED\PROJECT\VS\\..\..\..\..\\LIBS\TESS2\INCLUDE /IC:\USERS\LUCAS\DOWNLOADS\OF_V0.9.8_VS_RELEASE\LIBS\OPENFRAMEWORKSCOMPILED\PROJECT\VS\\..\..\..\..\\LIBS\CAIRO\INCLUDE\CAIRO /IC:\USERS\LUCAS\DOWNLOADS\OF_V0.9.8_VS_RELEASE\LIBS\OPENFRAMEWORKSCOMPILED\PROJECT\VS\\..\..\..\..\\LIBS\POCO\INCLUDE /IC:\USERS\LUCAS\DOWNLOADS\OF_V0.9.8_VS_RELEASE\LIBS\OPENFRAMEWORKSCOMPILED\PROJECT\VS\\..\..\..\..\\LIBS\GLFW\INCLUDE /IC:\USERS\LUCAS\DOWNLOADS\OF_V0.9.8_VS_RELEASE\LIBS\OPENFRAMEWORKSCOMPILED\PROJECT\VS\\..\..\..\..\\LIBS\OPENSSL\INCLUDE /IC:\USERS\LUCAS\DOWNLOADS\OF_V0.9.8_VS_RELEASE\LIBS\OPENFRAMEWORKSCOMPILED\PROJECT\VS\\..\..\..\..\\LIBS\UTF8CPP\INCLUDE /IC:\USERS\LUCAS\DOWNLOADS\OF_V0.9.8_VS_RELEASE\LIBS\OPENFRAMEWORKSCOMPILED\PROJECT\VS\\..\..\..\..\\LIBS\BOOST\INCLUDE /IC:\USERS\LUCAS\DOWNLOADS\OF_V0.9.8_VS_RELEASE\LIBS\OPENFRAMEWORKSCOMPILED\PROJECT\VS\\..\..\..\..\\ADDONS /AIC:\USERS\LUCAS\DOWNLOADS\OF_V0.9.8_VS_RELEASE\APPS\TANKGAME\TANKGAME\SRC\MATH /Zi /nologo /W3 /WX- /Od /Oy- /D WIN32 /D _DEBUG /D _CONSOLE /D POCO_STATIC /D CAIRO_WIN32_STATIC_BUILD /D DISABLE_SOME_FLOATING_POINT /D _UNICODE /D UNICODE /Gm- /EHsc /RTC1 /MDd /GS /fp:precise /Zc:wchar_t /Zc:forScope /Zc:inline /Fo"OBJ\DEBUG\\" /Fd"OBJ\DEBUG\VC140.PDB" /Gd /TP /analyze- C:\USERS\LUCAS\DOWNLOADS\OF_V0.9.8_VS_RELEASE\APPS\TANKGAME\TANKGAME\SRC\OFAPP.CPP
^C:\USERS\LUCAS\DOWNLOADS\OF_V0.9.8_VS_RELEASE\APPS\TANKGAME\TANKGAME\SRC\TANKGAME.CPP
/c /IC:\USERS\LUCAS\DOWNLOADS\OF_V0.9.8_VS_RELEASE\APPS\TANKGAME\TANKGAME\SRC\MATH /IC:\USERS\LUCAS\DOWNLOADS\OF_V0.9.8_VS_RELEASE\LIBS\OPENFRAMEWORKSCOMPILED\PROJECT\VS\\..\..\..\..\\LIBS\OPENFRAMEWORKS /IC:\USERS\LUCAS\DOWNLOADS\OF_V0.9.8_VS_RELEASE\LIBS\OPENFRAMEWORKSCOMPILED\PROJECT\VS\\..\..\..\..\\LIBS\OPENFRAMEWORKS\GRAPHICS /IC:\USERS\LUCAS\DOWNLOADS\OF_V0.9.8_VS_RELEASE\LIBS\OPENFRAMEWORKSCOMPILED\PROJECT\VS\\..\..\..\..\\LIBS\OPENFRAMEWORKS\APP /IC:\USERS\LUCAS\DOWNLOADS\OF_V0.9.8_VS_RELEASE\LIBS\OPENFRAMEWORKSCOMPILED\PROJECT\VS\\..\..\..\..\\LIBS\OPENFRAMEWORKS\SOUND /IC:\USERS\LUCAS\DOWNLOADS\OF_V0.9.8_VS_RELEASE\LIBS\OPENFRAMEWORKSCOMPILED\PROJECT\VS\\..\..\..\..\\LIBS\OPENFRAMEWORKS\UTILS /IC:\USERS\LUCAS\DOWNLOADS\OF_V0.9.8_VS_RELEASE\LIBS\OPENFRAMEWORKSCOMPILED\PROJECT\VS\\..\..\..\..\\LIBS\OPENFRAMEWORKS\COMMUNICATION /IC:\USERS\LUCAS\DOWNLOADS\OF_V0.9.8_VS_RELEASE\LIBS\OPENFRAMEWORKSCOMPILED\PROJECT\VS\\..\..\..\..\\LIBS\OPENFRAMEWORKS\VIDEO /IC:\USERS\LUCAS\DOWNLOADS\OF_V0.9.8_VS_RELEASE\LIBS\OPENFRAMEWORKSCOMPILED\PROJECT\VS\\..\..\..\..\\LIBS\OPENFRAMEWORKS\TYPES /IC:\USERS\LUCAS\DOWNLOADS\OF_V0.9.8_VS_RELEASE\LIBS\OPENFRAMEWORKSCOMPILED\PROJECT\VS\\..\..\..\..\\LIBS\OPENFRAMEWORKS\MATH /IC:\USERS\LUCAS\DOWNLOADS\OF_V0.9.8_VS_RELEASE\LIBS\OPENFRAMEWORKSCOMPILED\PROJECT\VS\\..\..\..\..\\LIBS\OPENFRAMEWORKS\3D /IC:\USERS\LUCAS\DOWNLOADS\OF_V0.9.8_VS_RELEASE\LIBS\OPENFRAMEWORKSCOMPILED\PROJECT\VS\\..\..\..\..\\LIBS\OPENFRAMEWORKS\GL /IC:\USERS\LUCAS\DOWNLOADS\OF_V0.9.8_VS_RELEASE\LIBS\OPENFRAMEWORKSCOMPILED\PROJECT\VS\\..\..\..\..\\LIBS\OPENFRAMEWORKS\EVENTS /IC:\USERS\LUCAS\DOWNLOADS\OF_V0.9.8_VS_RELEASE\LIBS\OPENFRAMEWORKSCOMPILED\PROJECT\VS\\..\..\..\..\\LIBS\GLUT\INCLUDE /IC:\USERS\LUCAS\DOWNLOADS\OF_V0.9.8_VS_RELEASE\LIBS\OPENFRAMEWORKSCOMPILED\PROJECT\VS\\..\..\..\..\\LIBS\RTAUDIO\INCLUDE /IC:\USERS\LUCAS\DOWNLOADS\OF_V0.9.8_VS_RELEASE\LIBS\OPENFRAMEWORKSCOMPILED\PROJECT\VS\\..\..\..\..\\LIBS\QUICKTIME\INCLUDE /IC:\USERS\LUCAS\DOWNLOADS\OF_V0.9.8_VS_RELEASE\LIBS\OPENFRAMEWORKSCOMPILED\PROJECT\VS\\..\..\..\..\\LIBS\FREETYPE\INCLUDE /IC:\USERS\LUCAS\DOWNLOADS\OF_V0.9.8_VS_RELEASE\LIBS\OPENFRAMEWORKSCOMPILED\PROJECT\VS\\..\..\..\..\\LIBS\FREETYPE\INCLUDE\FREETYPE2 /IC:\USERS\LUCAS\DOWNLOADS\OF_V0.9.8_VS_RELEASE\LIBS\OPENFRAMEWORKSCOMPILED\PROJECT\VS\\..\..\..\..\\LIBS\FREEIMAGE\INCLUDE /IC:\USERS\LUCAS\DOWNLOADS\OF_V0.9.8_VS_RELEASE\LIBS\OPENFRAMEWORKSCOMPILED\PROJECT\VS\\..\..\..\..\\LIBS\FMODEX\INCLUDE /IC:\USERS\LUCAS\DOWNLOADS\OF_V0.9.8_VS_RELEASE\LIBS\OPENFRAMEWORKSCOMPILED\PROJECT\VS\\..\..\..\..\\LIBS\VIDEOINPUT\INCLUDE /IC:\USERS\LUCAS\DOWNLOADS\OF_V0.9.8_VS_RELEASE\LIBS\OPENFRAMEWORKSCOMPILED\PROJECT\VS\\..\..\..\..\\LIBS\GLEW\INCLUDE\ /IC:\USERS\LUCAS\DOWNLOADS\OF_V0.9.8_VS_RELEASE\LIBS\OPENFRAMEWORKSCOMPILED\PROJECT\VS\\..\..\..\..\\LIBS\GLU\INCLUDE /IC:\USERS\LUCAS\DOWNLOADS\OF_V0.9.8_VS_RELEASE\LIBS\OPENFRAMEWORKSCOMPILED\PROJECT\VS\\..\..\..\..\\LIBS\TESS2\INCLUDE /IC:\USERS\LUCAS\DOWNLOADS\OF_V0.9.8_VS_RELEASE\LIBS\OPENFRAMEWORKSCOMPILED\PROJECT\VS\\..\..\..\..\\LIBS\CAIRO\INCLUDE\CAIRO /IC:\USERS\LUCAS\DOWNLOADS\OF_V0.9.8_VS_RELEASE\LIBS\OPENFRAMEWORKSCOMPILED\PROJECT\VS\\..\..\..\..\\LIBS\POCO\INCLUDE /IC:\USERS\LUCAS\DOWNLOADS\OF_V0.9.8_VS_RELEASE\LIBS\OPENFRAMEWORKSCOMPILED\PROJECT\VS\\..\..\..\..\\LIBS\GLFW\INCLUDE /IC:\USERS\LUCAS\DOWNLOADS\OF_V0.9.8_VS_RELEASE\LIBS\OPENFRAMEWORKSCOMPILED\PROJECT\VS\\..\..\..\..\\LIBS\OPENSSL\INCLUDE /IC:\USERS\LUCAS\DOWNLOADS\OF_V0.9.8_VS_RELEASE\LIBS\OPENFRAMEWORKSCOMPILED\PROJECT\VS\\..\..\..\..\\LIBS\UTF8CPP\INCLUDE /IC:\USERS\LUCAS\DOWNLOADS\OF_V0.9.8_VS_RELEASE\LIBS\OPENFRAMEWORKSCOMPILED\PROJECT\VS\\..\..\..\..\\LIBS\BOOST\INCLUDE /IC:\USERS\LUCAS\DOWNLOADS\OF_V0.9.8_VS_RELEASE\LIBS\OPENFRAMEWORKSCOMPILED\PROJECT\VS\\..\..\..\..\\ADDONS /AIC:\USERS\LUCAS\DOWNLOADS\OF_V0.9.8_VS_RELEASE\APPS\TANKGAME\TANKGAME\SRC\MATH /Zi /nologo /W3 /WX- /Od /Oy- /D WIN32 /D _DEBUG /D _CONSOLE /D POCO_STATIC /D CAIRO_WIN32_STATIC_BUILD /D DISABLE_SOME_FLOATING_POINT /D _UNICODE /D UNICODE /Gm- /EHsc /RTC1 /MDd /GS /fp:precise /Zc:wchar_t /Zc:forScope /Zc:inline /Fo"OBJ\DEBUG\\" /Fd"OBJ\DEBUG\VC140.PDB" /Gd /TP /analyze- C:\USERS\LUCAS\DOWNLOADS\OF_V0.9.8_VS_RELEASE\APPS\TANKGAME\TANKGAME\SRC\TANKGAME.CPP
